{
	"info": {
		"_postman_id": "c8f54c79-008d-496b-b9fe-c0c2e02cb15e",
		"name": "ProjectPart2",
		"schema": "https://schema.getpostman.com/json/collection/v2.1.0/collection.json"
	},
	"item": [
		{
			"name": "http://localhost:8080/users",
			"request": {
				"method": "GET",
				"header": [],
				"url": {
					"raw": "http://3.15.224.230:8080/users",
					"protocol": "http",
					"host": [
						"3",
						"15",
						"224",
						"230"
					],
					"port": "8080",
					"path": [
						"users"
					]
				}
			},
			"response": []
		},
		{
			"name": "http://localhost:8080/users",
			"request": {
				"method": "POST",
				"header": [
					{
						"key": "Content-Type",
						"name": "Content-Type",
						"value": "application/json",
						"type": "text"
					}
				],
				"body": {
					"mode": "raw",
					"raw": "{\n\t\"lastName\" : \"Slavila\" ,\n\t\"firstName\" : \"Victor\" ,\n\t\"email\" : \"victor.florin@yahoo.com\" ,\n\t\"password\" : \"123456\"\n}",
					"options": {
						"raw": {
							"language": "json"
						}
					}
				},
				"url": {
					"raw": "http://3.15.224.230:8080/users/register",
					"protocol": "http",
					"host": [
						"3",
						"15",
						"224",
						"230"
					],
					"port": "8080",
					"path": [
						"users",
						"register"
					]
				}
			},
			"response": []
		},
		{
			"name": "http://localhost:8080/users",
			"protocolProfileBehavior": {
				"disableBodyPruning": true
			},
			"request": {
				"method": "GET",
				"header": [
					{
						"key": "Content-Type",
						"name": "Content-Type",
						"value": "application/json",
						"type": "text"
					}
				],
				"body": {
					"mode": "raw",
					"raw": "",
					"options": {
						"raw": {
							"language": "json"
						}
					}
				},
				"url": {
					"raw": "http://3.15.224.230:8080/categories",
					"protocol": "http",
					"host": [
						"3",
						"15",
						"224",
						"230"
					],
					"port": "8080",
					"path": [
						"categories"
					]
				}
			},
			"response": []
		},
		{
			"name": "http://localhost:8080/users",
			"request": {
				"method": "POST",
				"header": [
					{
						"key": "Content-Type",
						"name": "Content-Type",
						"value": "application/json",
						"type": "text"
					}
				],
				"body": {
					"mode": "raw",
					"raw": "{\n\t\"name\" : \"Lactate\"\n}",
					"options": {
						"raw": {
							"language": "json"
						}
					}
				},
				"url": {
					"raw": "http://3.15.224.230:8080/categories",
					"protocol": "http",
					"host": [
						"3",
						"15",
						"224",
						"230"
					],
					"port": "8080",
					"path": [
						"categories"
					]
				}
			},
			"response": []
		},
		{
			"name": "http://localhost:8080/users",
			"protocolProfileBehavior": {
				"disableBodyPruning": true
			},
			"request": {
				"method": "GET",
				"header": [
					{
						"key": "Content-Type",
						"name": "Content-Type",
						"value": "application/json",
						"type": "text"
					}
				],
				"body": {
					"mode": "raw",
					"raw": "",
					"options": {
						"raw": {
							"language": "json"
						}
					}
				},
				"url": {
					"raw": "http://3.15.224.230:8080/categories",
					"protocol": "http",
					"host": [
						"3",
						"15",
						"224",
						"230"
					],
					"port": "8080",
					"path": [
						"categories"
					]
				}
			},
			"response": []
		},
		{
			"name": "http://localhost:8080/users",
			"request": {
				"method": "PUT",
				"header": [
					{
						"key": "Content-Type",
						"name": "Content-Type",
						"value": "application/json",
						"type": "text"
					}
				],
				"body": {
					"mode": "raw",
					"raw": "{\n\t\"name\" : \"Mezeluri\"\n}",
					"options": {
						"raw": {
							"language": "json"
						}
					}
				},
				"url": {
					"raw": "http://3.15.224.230:8080/categories/1",
					"protocol": "http",
					"host": [
						"3",
						"15",
						"224",
						"230"
					],
					"port": "8080",
					"path": [
						"categories",
						"1"
					]
				}
			},
			"response": []
		},
		{
			"name": "http://localhost:8080/users",
			"protocolProfileBehavior": {
				"disableBodyPruning": true
			},
			"request": {
				"method": "GET",
				"header": [
					{
						"key": "Content-Type",
						"name": "Content-Type",
						"value": "application/json",
						"type": "text"
					}
				],
				"body": {
					"mode": "raw",
					"raw": "",
					"options": {
						"raw": {
							"language": "json"
						}
					}
				},
				"url": {
					"raw": "http://3.15.224.230:8080/categories",
					"protocol": "http",
					"host": [
						"3",
						"15",
						"224",
						"230"
					],
					"port": "8080",
					"path": [
						"categories"
					]
				}
			},
			"response": []
		},
		{
			"name": "http://localhost:8080/users",
			"request": {
				"method": "DELETE",
				"header": [
					{
						"key": "Content-Type",
						"name": "Content-Type",
						"value": "application/json",
						"type": "text"
					}
				],
				"body": {
					"mode": "raw",
					"raw": "{\n\t\"id\" : 2\n}",
					"options": {
						"raw": {
							"language": "json"
						}
					}
				},
				"url": {
					"raw": "http://3.15.224.230:8080/categories/delete",
					"protocol": "http",
					"host": [
						"3",
						"15",
						"224",
						"230"
					],
					"port": "8080",
					"path": [
						"categories",
						"delete"
					]
				}
			},
			"response": []
		},
		{
			"name": "http://localhost:8080/users",
			"protocolProfileBehavior": {
				"disableBodyPruning": true
			},
			"request": {
				"method": "GET",
				"header": [
					{
						"key": "Content-Type",
						"name": "Content-Type",
						"value": "application/json",
						"type": "text"
					}
				],
				"body": {
					"mode": "raw",
					"raw": "",
					"options": {
						"raw": {
							"language": "json"
						}
					}
				},
				"url": {
					"raw": "http://3.15.224.230:8080/categories",
					"protocol": "http",
					"host": [
						"3",
						"15",
						"224",
						"230"
					],
					"port": "8080",
					"path": [
						"categories"
					]
				}
			},
			"response": []
		},
		{
			"name": "http://localhost:8080/users",
			"protocolProfileBehavior": {
				"disableBodyPruning": true
			},
			"request": {
				"method": "GET",
				"header": [
					{
						"key": "Content-Type",
						"name": "Content-Type",
						"value": "application/json",
						"type": "text"
					}
				],
				"body": {
					"mode": "raw",
					"raw": "",
					"options": {
						"raw": {
							"language": "json"
						}
					}
				},
				"url": {
					"raw": "http://3.15.224.230:8080/products",
					"protocol": "http",
					"host": [
						"3",
						"15",
						"224",
						"230"
					],
					"port": "8080",
					"path": [
						"products"
					]
				}
			},
			"response": []
		},
		{
			"name": "http://localhost:8080/users",
			"request": {
				"method": "DELETE",
				"header": [
					{
						"key": "Content-Type",
						"name": "Content-Type",
						"value": "application/json",
						"type": "text"
					}
				],
				"body": {
					"mode": "raw",
					"raw": "{\n\t\"id\" : 1\n}  \n",
					"options": {
						"raw": {
							"language": "json"
						}
					}
				},
				"url": {
					"raw": "http://3.15.224.230:8080/products/delete",
					"protocol": "http",
					"host": [
						"3",
						"15",
						"224",
						"230"
					],
					"port": "8080",
					"path": [
						"products",
						"delete"
					]
				}
			},
			"response": []
		},
		{
			"name": "http://localhost:8080/users",
			"request": {
				"method": "DELETE",
				"header": [
					{
						"key": "Content-Type",
						"name": "Content-Type",
						"value": "application/json",
						"type": "text"
					}
				],
				"body": {
					"mode": "raw",
					"raw": "{\n\t\"id\" : 2\n}  \n",
					"options": {
						"raw": {
							"language": "json"
						}
					}
				},
				"url": {
					"raw": "http://3.15.224.230:8080/products/delete",
					"protocol": "http",
					"host": [
						"3",
						"15",
						"224",
						"230"
					],
					"port": "8080",
					"path": [
						"products",
						"delete"
					]
				}
			},
			"response": []
		},
		{
			"name": "http://localhost:8080/users",
			"protocolProfileBehavior": {
				"disableBodyPruning": true
			},
			"request": {
				"method": "GET",
				"header": [
					{
						"key": "Content-Type",
						"name": "Content-Type",
						"value": "application/json",
						"type": "text"
					}
				],
				"body": {
					"mode": "raw",
					"raw": "",
					"options": {
						"raw": {
							"language": "json"
						}
					}
				},
				"url": {
					"raw": "http://3.15.224.230:8080/products",
					"protocol": "http",
					"host": [
						"3",
						"15",
						"224",
						"230"
					],
					"port": "8080",
					"path": [
						"products"
					]
				}
			},
			"response": []
		},
		{
			"name": "http://localhost:8080/users",
			"request": {
				"method": "POST",
				"header": [
					{
						"key": "Content-Type",
						"name": "Content-Type",
						"value": "application/json",
						"type": "text"
					}
				],
				"body": {
					"mode": "raw",
					"raw": "{\n\t\"name\" : \"Matache\",\n\t\"expireDate\" : \"2020-03-03\",\n\t\"available\" : \"true\",\n\t\"userId\" : 1,\n\t\"categoryId\" : 1\n}",
					"options": {
						"raw": {
							"language": "json"
						}
					}
				},
				"url": {
					"raw": "http://3.15.224.230:8080/products",
					"protocol": "http",
					"host": [
						"3",
						"15",
						"224",
						"230"
					],
					"port": "8080",
					"path": [
						"products"
					]
				}
			},
			"response": []
		},
		{
			"name": "http://localhost:8080/users",
			"protocolProfileBehavior": {
				"disableBodyPruning": true
			},
			"request": {
				"method": "GET",
				"header": [
					{
						"key": "Content-Type",
						"name": "Content-Type",
						"value": "application/json",
						"type": "text"
					}
				],
				"body": {
					"mode": "raw",
					"raw": "",
					"options": {
						"raw": {
							"language": "json"
						}
					}
				},
				"url": {
					"raw": "http://3.15.224.230:8080/products",
					"protocol": "http",
					"host": [
						"3",
						"15",
						"224",
						"230"
					],
					"port": "8080",
					"path": [
						"products"
					]
				}
			},
			"response": []
		},
		{
			"name": "http://localhost:8080/users",
			"request": {
				"method": "PUT",
				"header": [
					{
						"key": "Content-Type",
						"name": "Content-Type",
						"value": "application/json",
						"type": "text"
					}
				],
				"body": {
					"mode": "raw",
					"raw": "{\n\t\"name\" : \"Cris-Tim\" ,\n\t\"expireDate\" : \"2020-01-01\",\n\t\"available\" : \"true\",\n    \"userId\"  : 1 ,\n    \"groupId\" : 1\n}",
					"options": {
						"raw": {
							"language": "json"
						}
					}
				},
				"url": {
					"raw": "http://3.15.224.230:8080/products/8",
					"protocol": "http",
					"host": [
						"3",
						"15",
						"224",
						"230"
					],
					"port": "8080",
					"path": [
						"products",
						"8"
					]
				}
			},
			"response": []
		},
		{
			"name": "http://localhost:8080/users",
			"protocolProfileBehavior": {
				"disableBodyPruning": true
			},
			"request": {
				"method": "GET",
				"header": [
					{
						"key": "Content-Type",
						"name": "Content-Type",
						"value": "application/json",
						"type": "text"
					}
				],
				"body": {
					"mode": "raw",
					"raw": "",
					"options": {
						"raw": {
							"language": "json"
						}
					}
				},
				"url": {
					"raw": "http://3.15.224.230:8080/products",
					"protocol": "http",
					"host": [
						"3",
						"15",
						"224",
						"230"
					],
					"port": "8080",
					"path": [
						"products"
					]
				}
			},
			"response": []
		},
		{
			"name": "http://localhost:8080/users",
			"request": {
				"method": "POST",
				"header": [
					{
						"key": "Content-Type",
						"name": "Content-Type",
						"value": "application/json",
						"type": "text"
					}
				],
				"body": {
					"mode": "raw",
					"raw": "{\n\t\"ownerId\" : 1 ,\n\t\"label\" : \"Grup secret\"\n}",
					"options": {
						"raw": {
							"language": "json"
						}
					}
				},
				"url": {
					"raw": "http://3.15.224.230:8080/groups",
					"protocol": "http",
					"host": [
						"3",
						"15",
						"224",
						"230"
					],
					"port": "8080",
					"path": [
						"groups"
					]
				}
			},
			"response": []
		},
		{
			"name": "http://localhost:8080/users",
			"protocolProfileBehavior": {
				"disableBodyPruning": true
			},
			"request": {
				"method": "GET",
				"header": [
					{
						"key": "Content-Type",
						"name": "Content-Type",
						"value": "application/json",
						"type": "text"
					}
				],
				"body": {
					"mode": "raw",
					"raw": "",
					"options": {
						"raw": {
							"language": "json"
						}
					}
				},
				"url": {
					"raw": "http://3.15.224.230:8080/groups",
					"protocol": "http",
					"host": [
						"3",
						"15",
						"224",
						"230"
					],
					"port": "8080",
					"path": [
						"groups"
					]
				}
			},
			"response": []
		},
		{
			"name": "http://localhost:8080/users",
			"request": {
				"method": "DELETE",
				"header": [
					{
						"key": "Content-Type",
						"name": "Content-Type",
						"value": "application/json",
						"type": "text"
					}
				],
				"body": {
					"mode": "raw",
					"raw": "{\n\t\"id\" : 1\n}",
					"options": {
						"raw": {
							"language": "json"
						}
					}
				},
				"url": {
					"raw": "http://3.15.224.230:8080/groups/delete",
					"protocol": "http",
					"host": [
						"3",
						"15",
						"224",
						"230"
					],
					"port": "8080",
					"path": [
						"groups",
						"delete"
					]
				}
			},
			"response": []
		},
		{
			"name": "http://localhost:8080/users",
			"protocolProfileBehavior": {
				"disableBodyPruning": true
			},
			"request": {
				"method": "GET",
				"header": [
					{
						"key": "Content-Type",
						"name": "Content-Type",
						"value": "application/json",
						"type": "text"
					}
				],
				"body": {
					"mode": "raw",
					"raw": "",
					"options": {
						"raw": {
							"language": "json"
						}
					}
				},
				"url": {
					"raw": "http://3.15.224.230:8080/groups",
					"protocol": "http",
					"host": [
						"3",
						"15",
						"224",
						"230"
					],
					"port": "8080",
					"path": [
						"groups"
					]
				}
			},
			"response": []
		},
		{
			"name": "http://localhost:8080/users",
			"request": {
				"method": "POST",
				"header": [
					{
						"key": "Content-Type",
						"name": "Content-Type",
						"value": "application/json",
						"type": "text"
					}
				],
				"body": {
					"mode": "raw",
					"raw": "{\n\t\"ownerId\" : 1 ,\n\t\"label\" : \"Grup\"\n}",
					"options": {
						"raw": {
							"language": "json"
						}
					}
				},
				"url": {
					"raw": "http://3.15.224.230:8080/groups",
					"protocol": "http",
					"host": [
						"3",
						"15",
						"224",
						"230"
					],
					"port": "8080",
					"path": [
						"groups"
					]
				}
			},
			"response": []
		},
		{
			"name": "http://localhost:8080/users",
			"protocolProfileBehavior": {
				"disableBodyPruning": true
			},
			"request": {
				"method": "GET",
				"header": [
					{
						"key": "Content-Type",
						"name": "Content-Type",
						"value": "application/json",
						"type": "text"
					}
				],
				"body": {
					"mode": "raw",
					"raw": "",
					"options": {
						"raw": {
							"language": "json"
						}
					}
				},
				"url": {
					"raw": "http://3.15.224.230:8080/groups",
					"protocol": "http",
					"host": [
						"3",
						"15",
						"224",
						"230"
					],
					"port": "8080",
					"path": [
						"groups"
					]
				}
			},
			"response": []
		},
		{
			"name": "http://localhost:8080/users",
			"request": {
				"method": "POST",
				"header": [
					{
						"key": "Content-Type",
						"name": "Content-Type",
						"value": "application/json",
						"type": "text"
					}
				],
				"body": {
					"mode": "raw",
					"raw": "{\n\t\"userId\" : 2 ,\n\t\"groupId\"  : 2\n}",
					"options": {
						"raw": {
							"language": "json"
						}
					}
				},
				"url": {
					"raw": "http://3.15.224.230:8080/friends",
					"protocol": "http",
					"host": [
						"3",
						"15",
						"224",
						"230"
					],
					"port": "8080",
					"path": [
						"friends"
					]
				}
			},
			"response": []
		},
		{
			"name": "http://localhost:8080/users",
			"protocolProfileBehavior": {
				"disableBodyPruning": true
			},
			"request": {
				"method": "GET",
				"header": [
					{
						"key": "Content-Type",
						"name": "Content-Type",
						"value": "application/json",
						"type": "text"
					}
				],
				"body": {
					"mode": "raw",
					"raw": "",
					"options": {
						"raw": {
							"language": "json"
						}
					}
				},
				"url": {
					"raw": "http://3.15.224.230:8080/friends",
					"protocol": "http",
					"host": [
						"3",
						"15",
						"224",
						"230"
					],
					"port": "8080",
					"path": [
						"friends"
					]
				}
			},
			"response": []
		},
		{
			"name": "http://localhost:8080/users",
			"request": {
				"method": "DELETE",
				"header": [
					{
						"key": "Content-Type",
						"name": "Content-Type",
						"value": "application/json",
						"type": "text"
					}
				],
				"body": {
					"mode": "raw",
					"raw": "{\n\t\"id\" : 1 \n}",
					"options": {
						"raw": {
							"language": "json"
						}
					}
				},
				"url": {
					"raw": "http://3.15.224.230:8080/friends/delete",
					"protocol": "http",
					"host": [
						"3",
						"15",
						"224",
						"230"
					],
					"port": "8080",
					"path": [
						"friends",
						"delete"
					]
				}
			},
			"response": []
		},
		{
			"name": "http://localhost:8080/users",
			"protocolProfileBehavior": {
				"disableBodyPruning": true
			},
			"request": {
				"method": "GET",
				"header": [
					{
						"key": "Content-Type",
						"name": "Content-Type",
						"value": "application/json",
						"type": "text"
					}
				],
				"body": {
					"mode": "raw",
					"raw": "",
					"options": {
						"raw": {
							"language": "json"
						}
					}
				},
				"url": {
					"raw": "http://3.15.224.230:8080/friends",
					"protocol": "http",
					"host": [
						"3",
						"15",
						"224",
						"230"
					],
					"port": "8080",
					"path": [
						"friends"
					]
				}
			},
			"response": []
		},
		{
			"name": "http://localhost:8080/users",
			"request": {
				"method": "POST",
				"header": [
					{
						"key": "Content-Type",
						"name": "Content-Type",
						"value": "application/json",
						"type": "text"
					}
				],
				"body": {
					"mode": "raw",
					"raw": "{\n\t\"userId\" : 2 ,\n\t\"groupId\" : 2\n}",
					"options": {
						"raw": {
							"language": "json"
						}
					}
				},
				"url": {
					"raw": "http://3.15.224.230:8080/friends",
					"protocol": "http",
					"host": [
						"3",
						"15",
						"224",
						"230"
					],
					"port": "8080",
					"path": [
						"friends"
					]
				}
			},
			"response": []
		},
		{
			"name": "http://localhost:8080/users",
			"protocolProfileBehavior": {
				"disableBodyPruning": true
			},
			"request": {
				"method": "GET",
				"header": [
					{
						"key": "Content-Type",
						"name": "Content-Type",
						"value": "application/json",
						"type": "text"
					}
				],
				"body": {
					"mode": "raw",
					"raw": "",
					"options": {
						"raw": {
							"language": "json"
						}
					}
				},
				"url": {
					"raw": "http://3.15.224.230:8080/friends",
					"protocol": "http",
					"host": [
						"3",
						"15",
						"224",
						"230"
					],
					"port": "8080",
					"path": [
						"friends"
					]
				}
			},
			"response": []
		},
		{
			"name": "http://localhost:8080/users",
			"protocolProfileBehavior": {
				"disableBodyPruning": true
			},
			"request": {
				"method": "GET",
				"header": [
					{
						"key": "Content-Type",
						"name": "Content-Type",
						"value": "application/json",
						"type": "text"
					}
				],
				"body": {
					"mode": "raw",
					"raw": "",
					"options": {
						"raw": {
							"language": "json"
						}
					}
				},
				"url": {
					"raw": "http://3.15.224.230:8080/users/1/groups",
					"protocol": "http",
					"host": [
						"3",
						"15",
						"224",
						"230"
					],
					"port": "8080",
					"path": [
						"users",
						"1",
						"groups"
					]
				}
			},
			"response": []
		},
		{
			"name": "http://localhost:8080/users",
			"protocolProfileBehavior": {
				"disableBodyPruning": true
			},
			"request": {
				"method": "GET",
				"header": [
					{
						"key": "Content-Type",
						"name": "Content-Type",
						"value": "application/json",
						"type": "text"
					}
				],
				"body": {
					"mode": "raw",
					"raw": "",
					"options": {
						"raw": {
							"language": "json"
						}
					}
				},
				"url": {
					"raw": "http://3.15.224.230:8080/users/1/products",
					"protocol": "http",
					"host": [
						"3",
						"15",
						"224",
						"230"
					],
					"port": "8080",
					"path": [
						"users",
						"1",
						"products"
					]
				}
			},
			"response": []
		},
		{
			"name": "http://localhost:8080/users",
			"protocolProfileBehavior": {
				"disableBodyPruning": true
			},
			"request": {
				"method": "GET",
				"header": [
					{
						"key": "Content-Type",
						"name": "Content-Type",
						"value": "application/json",
						"type": "text"
					}
				],
				"body": {
					"mode": "raw",
					"raw": "",
					"options": {
						"raw": {
							"language": "json"
						}
					}
				},
				"url": {
					"raw": "http://3.15.224.230:8080/users/1/info",
					"protocol": "http",
					"host": [
						"3",
						"15",
						"224",
						"230"
					],
					"port": "8080",
					"path": [
						"users",
						"1",
						"info"
					]
				}
			},
			"response": []
		}
	],
	"protocolProfileBehavior": {}
}